…
```r
if(nrow(dmv_pay3)!= nrow(dmv_pay2)) print("ERROR CHECK OUT")

dmv_pay3$femaleavg <- round(dmv_pay3$femalesum/dmv_pay3$female,2)
dmv_pay3$maleavg <- round(dmv_pay3$malesum/dmv_pay3$male,2)

dmv_pay3$dif <- dmv_pay3$femaleavg - dmv_pay3$maleavg #difference between female and male
#positive is better

print(dmv_pay3[, c(1:2, 44:length(names(dmv_pay3)))])
```

```
## # A tibble: 158 x 9
##    GEOID NAME     femalesum female   male pfemale femaleavg maleavg    dif
##    <chr> <chr>        <dbl>  <dbl>  <dbl>   <dbl>     <dbl>   <dbl>  <dbl>
##  1 11001 Distric~    9.94e9 346380 312629    53.0     28701   33877 - 5176
##  2 24001 Allegan~    4.49e8  34983  38077    48.0     12827   16596 - 3769
##  3 24003 Anne Ar~    6.75e9 282895 276842    51.0     23877   34184 -10306
##  4 24005 Baltimo~    9.31e9 434564 391102    53.0     21420   28553 - 7133
##  5 24009 Calvert~    1.07e9  45561  44966    50.0     23410   33482 -10072
##  6 24011 Carolin~    2.46e8  16831  15822    52.0     14636   21704 - 7068
##  7 24013 Carroll~    1.77e9  84643  82892    51.0     20936   33395 -12459
##  8 24015 Cecil C~    9.14e8  51572  50603    50.0     17723   28484 -10761
##  9 24017 Charles~    2.03e9  79868  74489    52.0     25367   31596 - 6230
## 10 24019 Dorches~    2.76e8  16932  15519    52.0     16299   21184 - 4884
## # ... with 148 more rows
```
…
